[
  {
    "name": "admin",
    "email": "admin@mail.ru",
    "password": "$2a$10$UWr5YCW6gweRQFk3bxKZMeZnpkR82liSDS.MXwvVzKqxeiItAm6VS",
    "role": "admin"
  },
  {
    "name": "user",
    "email": "user@mail.ru",
    "password": "$2a$10$BzDM/aX062knpsOXMwxKMOC8Cfs.ICQ8wShDcTgHAvG8Ttk1r4AKa",
    "role": "user"
  }
]
